3-->2: 	(1)
6-->5: 	(5)
9-->8: 	(3)
10-->8: 	(3)
10-->9: 	(1)
11-->8: 	(3)
17-->1: 	(7)
17-->16: 	(1)
18-->6: 	(1)
18-->16: 	(1)
18-->17: 	(3)
19-->6: 	(3)
19-->16: 	(3)
19-->17: 	(3)
22-->20: 	(3)
25-->20: 	(1)
25-->24: 	(3)
26-->20: 	(3)
27-->1: 	(1)
28-->8: 	(9)
28-->27: 	(4)
29-->27: 	(1)
29-->28: 	(1)
30-->27: 	(1)
30-->28: 	(1)
30-->29: 	(1)
32-->29: 	(3)
32-->31: 	(3)
33-->1: 	(4)
33-->28: 	(3)
33-->31: 	(1)
33-->32: 	(1)
34-->31: 	(1)
34-->32: 	(3)
34-->33: 	(1)
35-->29: 	(3)
35-->31: 	(1)
35-->33: 	(1)
35-->34: 	(1)
41-->34: 	(3)
41-->36: 	(1)
41-->37: 	(1)
42-->34: 	(3)
42-->37: 	(3)
43-->34: 	(4)
43-->36: 	(3)
43-->38: 	(3)
43-->39: 	(3)
44-->29: 	(1)
45-->29: 	(1)
45-->30: 	(3)
46-->45: 	(1)
47-->13: 	(1)
48-->47: 	(3)
49-->1: 	(3)
49-->48: 	(1)
50-->1: 	(5)
51-->1: 	(1)
51-->12: 	(1)
51-->13: 	(1)
51-->48: 	(1)
52-->12: 	(1)
52-->50: 	(3)
52-->51: 	(3)
53-->51: 	(1)
54-->12: 	(1)
54-->13: 	(1)
54-->50: 	(3)
54-->51: 	(3)
54-->53: 	(1)
55-->12: 	(3)
55-->13: 	(3)
55-->48: 	(1)
55-->52: 	(3)
55-->53: 	(3)
56-->13: 	(1)
56-->48: 	(4)
56-->49: 	(1)
56-->50: 	(1)
56-->51: 	(3)
57-->20: 	(3)
57-->21: 	(1)
57-->22: 	(3)
57-->23: 	(1)
57-->25: 	(1)
57-->27: 	(11)
57-->53: 	(7)
58-->41: 	(1)
58-->43: 	(1)
59-->7: 	(1)
59-->41: 	(1)
59-->43: 	(1)
60-->41: 	(1)
60-->42: 	(1)
61-->36: 	(3)
61-->37: 	(3)
62-->61: 	(1)
63-->34: 	(11)
64-->30: 	(3)
64-->45: 	(3)
65-->10: 	(1)
65-->29: 	(1)
65-->63: 	(1)
65-->64: 	(3)
66-->49: 	(1)
66-->50: 	(1)
66-->51: 	(7)
67-->66: 	(9)
68-->16: 	(3)
68-->36: 	(3)
68-->37: 	(3)
68-->38: 	(1)
68-->39: 	(1)
68-->40: 	(1)
68-->49: 	(1)
68-->50: 	(5)
68-->51: 	(3)
68-->67: 	(3)
69-->4: 	(1)
69-->34: 	(3)
69-->48: 	(3)
69-->68: 	(3)
70-->9: 	(5)
70-->14: 	(1)
70-->15: 	(1)
71-->70: 	(3)
72-->62: 	(1)
73-->1: 	(7)
74-->2: 	(3)
74-->3: 	(3)
74-->5: 	(3)
74-->73: 	(5)
75-->20: 	(4)
76-->9: 	(1)
76-->75: 	(3)
77-->25: 	(3)
77-->76: 	(3)
78-->24: 	(3)
78-->75: 	(3)
78-->77: 	(1)
79-->25: 	(1)
79-->26: 	(3)
80-->71: 	(3)
81-->71: 	(1)
82-->63: 	(4)
82-->80: 	(3)
83-->11: 	(3)
83-->65: 	(1)
83-->80: 	(1)
83-->82: 	(1)
84-->65: 	(1)
84-->80: 	(1)
84-->82: 	(3)
85-->81: 	(3)
85-->82: 	(3)
85-->83: 	(3)
85-->84: 	(3)
86-->46: 	(1)
