
Considered topology name istopos1/rocketfuel_1239
Option :create route metric sequence for each link separately: is set=1
Reading topology from file 
Reading topology from file is COMPLETED 
2-->1: 	6	7	8	9	12	13	16	1000	
2-->1: 	(7)
5-->3: 	8	1000	
5-->3: 	(1)
5-->4: 	8	1000	
5-->4: 	(1)
6-->3: 	2	1000	
6-->3: 	(1)
6-->4: 	2	1000	
6-->4: 	(1)
6-->5: 	9	1000	
6-->5: 	(1)
7-->3: 	2	1000	
7-->3: 	(1)
7-->4: 	2	1000	
7-->4: 	(1)
7-->5: 	9	1000	
7-->5: 	(1)
7-->6: 	2	1000	
7-->6: 	(1)
8-->3: 	3	1000	
8-->3: 	(1)
8-->4: 	4	1000	
8-->4: 	(1)
8-->5: 	8	1000	
8-->5: 	(1)
8-->6: 	4	1000	
8-->6: 	(1)
8-->7: 	3	1000	
8-->7: 	(1)
9-->3: 	2	3	4	1000	
9-->3: 	(3)
9-->4: 	3	1000	
9-->4: 	(1)
9-->5: 	9	1000	
9-->5: 	(1)
9-->6: 	3	1000	
9-->6: 	(1)
9-->7: 	2	3	4	1000	
9-->7: 	(3)
10-->3: 	2	3	4	1000	
10-->3: 	(3)
10-->4: 	3	1000	
10-->4: 	(1)
10-->6: 	2	3	4	1000	
10-->6: 	(3)
10-->7: 	2	3	4	1000	
10-->7: 	(3)
11-->5: 	8	1000	
11-->5: 	(1)
11-->7: 	2	3	14	1000	
11-->7: 	(3)
12-->3: 	3	4	5	1000	
12-->3: 	(3)
12-->4: 	4	1000	
12-->4: 	(1)
12-->5: 	8	1000	
12-->5: 	(1)
12-->6: 	3	4	5	1000	
12-->6: 	(3)
12-->7: 	3	4	5	1000	
12-->7: 	(3)
13-->3: 	2	3	4	1000	
13-->3: 	(3)
13-->4: 	3	1000	
13-->4: 	(1)
13-->5: 	9	1000	
13-->5: 	(1)
13-->6: 	2	3	4	1000	
13-->6: 	(3)
13-->7: 	2	3	4	1000	
13-->7: 	(3)
14-->3: 	2	3	4	1000	
14-->3: 	(3)
14-->4: 	3	1000	
14-->4: 	(1)
14-->5: 	9	1000	
14-->5: 	(1)
14-->6: 	2	3	4	1000	
14-->6: 	(3)
14-->7: 	2	3	4	1000	
14-->7: 	(3)
15-->3: 	2	3	4	1000	
15-->3: 	(3)
15-->4: 	3	1000	
15-->4: 	(1)
15-->5: 	8	1000	
15-->5: 	(1)
15-->6: 	2	3	4	1000	
15-->6: 	(3)
15-->7: 	2	3	4	1000	
15-->7: 	(3)
16-->3: 	3	1000	
16-->3: 	(1)
16-->4: 	4	1000	
16-->4: 	(1)
16-->5: 	8	1000	
16-->5: 	(1)
16-->6: 	4	1000	
16-->6: 	(1)
16-->7: 	3	1000	
16-->7: 	(1)
17-->3: 	2	3	4	1000	
17-->3: 	(3)
17-->4: 	3	1000	
17-->4: 	(1)
17-->5: 	8	1000	
17-->5: 	(1)
17-->6: 	2	3	4	1000	
17-->6: 	(3)
17-->7: 	2	3	4	1000	
17-->7: 	(3)
18-->3: 	2	3	4	1000	
18-->3: 	(3)
18-->6: 	2	3	4	1000	
18-->6: 	(3)
19-->3: 	1	1000	
19-->3: 	(1)
20-->5: 	10	1000	
20-->5: 	(1)
20-->6: 	2	1000	
20-->6: 	(1)
20-->7: 	2	3	4	1000	
20-->7: 	(3)
21-->5: 	8	1000	
21-->5: 	(1)
21-->6: 	5	1000	
21-->6: 	(1)
21-->7: 	3	4	5	1000	
21-->7: 	(3)
22-->4: 	1	1000	
22-->4: 	(1)
23-->3: 	2	3	4	1000	
23-->3: 	(3)
23-->4: 	3	1000	
23-->4: 	(1)
23-->5: 	8	1000	
23-->5: 	(1)
23-->6: 	2	3	4	1000	
23-->6: 	(3)
23-->7: 	2	3	4	1000	
23-->7: 	(3)
24-->3: 	3	1000	
24-->3: 	(1)
24-->4: 	3	1000	
24-->4: 	(1)
24-->6: 	2	3	5	1000	
24-->6: 	(3)
24-->7: 	3	1000	
24-->7: 	(1)
25-->3: 	2	3	4	1000	
25-->3: 	(3)
25-->4: 	2	3	4	1000	
25-->4: 	(3)
25-->5: 	8	1000	
25-->5: 	(1)
25-->6: 	2	3	4	1000	
25-->6: 	(3)
25-->7: 	2	3	4	1000	
25-->7: 	(3)
26-->3: 	2	3	4	1000	
26-->3: 	(3)
26-->4: 	3	1000	
26-->4: 	(1)
26-->6: 	3	1000	
26-->6: 	(1)
26-->7: 	2	3	4	1000	
26-->7: 	(3)
26-->8: 	2	1000	
26-->8: 	(1)
26-->9: 	2	1000	
26-->9: 	(1)
26-->10: 	2	3	4	1000	
26-->10: 	(3)
26-->12: 	4	1000	
26-->12: 	(1)
26-->13: 	2	3	4	1000	
26-->13: 	(3)
26-->14: 	2	3	4	1000	
26-->14: 	(3)
26-->15: 	2	3	4	1000	
26-->15: 	(3)
26-->16: 	2	1000	
26-->16: 	(1)
26-->17: 	2	3	4	1000	
26-->17: 	(3)
26-->23: 	2	3	4	1000	
26-->23: 	(3)
26-->24: 	2	3	5	1000	
26-->24: 	(3)
26-->25: 	2	3	4	1000	
26-->25: 	(3)
27-->3: 	3	1000	
27-->3: 	(1)
27-->4: 	3	1000	
27-->4: 	(1)
27-->5: 	8	1000	
27-->5: 	(1)
27-->6: 	2	3	5	1000	
27-->6: 	(3)
27-->7: 	3	1000	
27-->7: 	(1)
27-->26: 	2	3	4	1000	
27-->26: 	(3)
35-->31: 	2	1000	
35-->31: 	(1)
35-->32: 	2	1000	
35-->32: 	(1)
35-->33: 	2	1000	
35-->33: 	(1)
35-->34: 	2	1000	
35-->34: 	(1)
36-->31: 	2	3	4	1000	
36-->31: 	(3)
36-->32: 	2	3	4	1000	
36-->32: 	(3)
36-->33: 	2	3	4	1000	
36-->33: 	(3)
36-->34: 	2	3	4	1000	
36-->34: 	(3)
36-->35: 	2	1000	
36-->35: 	(1)
37-->31: 	2	1000	
37-->31: 	(1)
37-->32: 	2	1000	
37-->32: 	(1)
37-->33: 	2	1000	
37-->33: 	(1)
37-->35: 	2	1000	
37-->35: 	(1)
37-->36: 	2	1000	
37-->36: 	(1)
38-->37: 	1	1000	
38-->37: 	(1)
39-->35: 	2	1000	
39-->35: 	(1)
39-->36: 	2	3	4	1000	
39-->36: 	(3)
39-->37: 	2	1000	
39-->37: 	(1)
40-->35: 	2	1000	
40-->35: 	(1)
40-->36: 	2	3	4	1000	
40-->36: 	(3)
40-->37: 	2	1000	
40-->37: 	(1)
42-->35: 	2	1000	
42-->35: 	(1)
42-->36: 	2	3	4	1000	
42-->36: 	(3)
42-->37: 	2	1000	
42-->37: 	(1)
43-->34: 	2	1000	
43-->34: 	(1)
43-->35: 	2	3	4	1000	
43-->35: 	(3)
44-->35: 	2	1000	
44-->35: 	(1)
44-->36: 	2	3	4	1000	
44-->36: 	(3)
44-->37: 	2	1000	
44-->37: 	(1)
45-->35: 	2	1000	
45-->35: 	(1)
45-->36: 	2	3	4	1000	
45-->36: 	(3)
45-->37: 	2	1000	
45-->37: 	(1)
46-->35: 	5	1000	
46-->35: 	(1)
46-->36: 	5	6	7	1000	
46-->36: 	(3)
46-->37: 	5	1000	
46-->37: 	(1)
47-->35: 	2	1000	
47-->35: 	(1)
47-->36: 	2	3	4	1000	
47-->36: 	(3)
47-->37: 	2	1000	
47-->37: 	(1)
49-->48: 	3	1000	
49-->48: 	(1)
51-->1: 	2	3	9	1000	
51-->1: 	(3)
51-->50: 	2	3	9	10	13	1000	
51-->50: 	(5)
53-->52: 	2	1000	
53-->52: 	(1)
54-->52: 	2	3	4	1000	
54-->52: 	(3)
54-->53: 	3	1000	
54-->53: 	(1)
55-->53: 	2	1000	
55-->53: 	(1)
55-->54: 	2	3	4	1000	
55-->54: 	(3)
56-->41: 	1	1000	
56-->41: 	(1)
56-->53: 	2	1000	
56-->53: 	(1)
56-->54: 	2	3	4	1000	
56-->54: 	(3)
57-->53: 	2	1000	
57-->53: 	(1)
57-->54: 	2	3	4	1000	
57-->54: 	(3)
58-->53: 	2	1000	
58-->53: 	(1)
58-->54: 	2	3	4	1000	
58-->54: 	(3)
59-->53: 	2	1000	
59-->53: 	(1)
59-->54: 	2	3	4	1000	
59-->54: 	(3)
60-->53: 	2	1000	
60-->53: 	(1)
60-->54: 	2	3	4	1000	
60-->54: 	(3)
63-->36: 	8	9	10	1000	
63-->36: 	(3)
63-->53: 	12	1000	
63-->53: 	(1)
63-->54: 	5	6	8	1000	
63-->54: 	(3)
63-->62: 	2	3	4	1000	
63-->62: 	(3)
64-->62: 	2	1000	
64-->62: 	(1)
65-->35: 	8	9	10	1000	
65-->35: 	(3)
65-->53: 	5	6	7	1000	
65-->53: 	(3)
65-->63: 	2	1000	
65-->63: 	(1)
65-->64: 	2	3	4	1000	
65-->64: 	(3)
66-->53: 	5	6	7	1000	
66-->53: 	(3)
66-->62: 	2	3	4	1000	
66-->62: 	(3)
66-->63: 	2	1000	
66-->63: 	(1)
66-->64: 	2	3	4	1000	
66-->64: 	(3)
66-->65: 	2	3	4	1000	
66-->65: 	(3)
67-->62: 	2	3	4	1000	
67-->62: 	(3)
67-->63: 	2	1000	
67-->63: 	(1)
67-->64: 	2	1000	
67-->64: 	(1)
67-->65: 	2	3	4	1000	
67-->65: 	(3)
67-->66: 	2	3	4	1000	
67-->66: 	(3)
69-->62: 	3	1000	
69-->62: 	(1)
69-->63: 	2	1000	
69-->63: 	(1)
69-->64: 	2	1000	
69-->64: 	(1)
69-->65: 	2	3	4	1000	
69-->65: 	(3)
69-->66: 	2	3	4	1000	
69-->66: 	(3)
69-->67: 	2	3	4	1000	
69-->67: 	(3)
70-->62: 	3	1000	
70-->62: 	(1)
70-->63: 	2	1000	
70-->63: 	(1)
70-->64: 	2	1000	
70-->64: 	(1)
70-->65: 	2	3	4	1000	
70-->65: 	(3)
70-->66: 	2	3	4	1000	
70-->66: 	(3)
71-->62: 	3	1000	
71-->62: 	(1)
71-->63: 	2	1000	
71-->63: 	(1)
71-->64: 	2	1000	
71-->64: 	(1)
71-->65: 	2	3	4	1000	
71-->65: 	(3)
71-->66: 	2	3	4	1000	
71-->66: 	(3)
72-->62: 	2	3	4	1000	
72-->62: 	(3)
72-->63: 	2	1000	
72-->63: 	(1)
72-->64: 	2	1000	
72-->64: 	(1)
72-->65: 	2	3	4	1000	
72-->65: 	(3)
72-->66: 	2	3	4	1000	
72-->66: 	(3)
72-->67: 	2	3	4	1000	
72-->67: 	(3)
73-->62: 	3	1000	
73-->62: 	(1)
73-->63: 	2	1000	
73-->63: 	(1)
73-->64: 	2	1000	
73-->64: 	(1)
73-->65: 	2	3	4	1000	
73-->65: 	(3)
73-->66: 	2	3	4	1000	
73-->66: 	(3)
74-->63: 	3	1000	
74-->63: 	(1)
74-->65: 	2	1000	
74-->65: 	(1)
75-->62: 	3	1000	
75-->62: 	(1)
75-->63: 	2	1000	
75-->63: 	(1)
75-->64: 	2	1000	
75-->64: 	(1)
75-->65: 	2	3	4	1000	
75-->65: 	(3)
75-->66: 	2	3	4	1000	
75-->66: 	(3)
76-->62: 	2	1000	
76-->62: 	(1)
76-->63: 	3	1000	
76-->63: 	(1)
76-->64: 	3	1000	
76-->64: 	(1)
76-->65: 	4	1000	
76-->65: 	(1)
76-->66: 	3	1000	
76-->66: 	(1)
77-->62: 	3	1000	
77-->62: 	(1)
77-->63: 	2	1000	
77-->63: 	(1)
77-->64: 	2	1000	
77-->64: 	(1)
77-->65: 	2	3	4	1000	
77-->65: 	(3)
77-->66: 	2	3	4	1000	
77-->66: 	(3)
78-->62: 	2	1000	
78-->62: 	(1)
78-->63: 	2	1000	
78-->63: 	(1)
78-->64: 	3	1000	
78-->64: 	(1)
78-->65: 	2	3	4	1000	
78-->65: 	(3)
78-->66: 	2	3	4	1000	
78-->66: 	(3)
79-->62: 	2	3	4	1000	
79-->62: 	(3)
79-->63: 	2	1000	
79-->63: 	(1)
79-->64: 	2	1000	
79-->64: 	(1)
79-->65: 	2	3	4	1000	
79-->65: 	(3)
79-->66: 	2	3	4	1000	
79-->66: 	(3)
79-->67: 	2	3	4	1000	
79-->67: 	(3)
80-->62: 	2	3	4	1000	
80-->62: 	(3)
80-->63: 	2	1000	
80-->63: 	(1)
80-->64: 	2	1000	
80-->64: 	(1)
80-->65: 	2	3	4	1000	
80-->65: 	(3)
80-->66: 	2	3	4	1000	
80-->66: 	(3)
80-->67: 	2	3	4	1000	
80-->67: 	(3)
81-->62: 	2	3	4	1000	
81-->62: 	(3)
81-->63: 	2	1000	
81-->63: 	(1)
81-->64: 	2	1000	
81-->64: 	(1)
81-->65: 	2	3	4	1000	
81-->65: 	(3)
81-->66: 	2	3	4	1000	
81-->66: 	(3)
81-->67: 	3	1000	
81-->67: 	(1)
82-->46: 	13	14	15	1000	
82-->46: 	(3)
82-->63: 	2	3	9	1000	
82-->63: 	(3)
83-->65: 	4	5	7	1000	
83-->65: 	(3)
83-->82: 	5	6	8	1000	
83-->82: 	(3)
84-->63: 	2	1000	
84-->63: 	(1)
84-->65: 	2	3	4	1000	
84-->65: 	(3)
85-->67: 	1	1000	
85-->67: 	(1)
86-->66: 	1	1000	
86-->66: 	(1)
87-->63: 	2	1000	
87-->63: 	(1)
87-->65: 	2	3	4	1000	
87-->65: 	(3)
88-->62: 	2	1000	
88-->62: 	(1)
88-->63: 	2	1000	
88-->63: 	(1)
88-->64: 	2	1000	
88-->64: 	(1)
88-->65: 	2	3	4	1000	
88-->65: 	(3)
88-->66: 	2	3	4	1000	
88-->66: 	(3)
89-->62: 	2	1000	
89-->62: 	(1)
89-->63: 	2	1000	
89-->63: 	(1)
89-->64: 	2	1000	
89-->64: 	(1)
89-->65: 	2	3	4	1000	
89-->65: 	(3)
89-->66: 	2	3	4	1000	
89-->66: 	(3)
90-->62: 	2	1000	
90-->62: 	(1)
90-->63: 	2	1000	
90-->63: 	(1)
90-->64: 	2	1000	
90-->64: 	(1)
90-->65: 	2	3	4	1000	
90-->65: 	(3)
90-->66: 	2	3	4	1000	
90-->66: 	(3)
92-->91: 	2	3	5	1000	
92-->91: 	(3)
94-->5: 	10	1000	
94-->5: 	(1)
94-->7: 	4	1000	
94-->7: 	(1)
94-->35: 	6	7	8	1000	
94-->35: 	(3)
94-->66: 	6	7	8	1000	
94-->66: 	(3)
94-->93: 	3	1000	
94-->93: 	(1)
95-->94: 	3	1000	
95-->94: 	(1)
96-->4: 	4	1000	
96-->4: 	(1)
96-->36: 	6	7	8	1000	
96-->36: 	(3)
96-->93: 	3	1000	
96-->93: 	(1)
96-->94: 	2	3	4	1000	
96-->94: 	(3)
96-->95: 	2	1000	
96-->95: 	(1)
97-->5: 	12	1000	
97-->5: 	(1)
97-->6: 	4	1000	
97-->6: 	(1)
97-->7: 	6	1000	
97-->7: 	(1)
97-->12: 	8	1000	
97-->12: 	(1)
97-->54: 	1000	
97-->54: 	(0)
97-->63: 	6	1000	
97-->63: 	(1)
97-->64: 	6	1000	
97-->64: 	(1)
97-->65: 	8	1000	
97-->65: 	(1)
97-->66: 	10	1000	
97-->66: 	(1)
97-->70: 	1000	
97-->70: 	(0)
97-->76: 	1000	
97-->76: 	(0)
97-->93: 	3	1000	
97-->93: 	(1)
97-->94: 	2	1000	
97-->94: 	(1)
97-->95: 	2	3	4	1000	
97-->95: 	(3)
97-->96: 	2	3	4	1000	
97-->96: 	(3)
98-->3: 	4	1000	
98-->3: 	(1)
98-->62: 	6	1000	
98-->62: 	(1)
98-->68: 	1	1000	
98-->68: 	(1)
98-->93: 	2	1000	
98-->93: 	(1)
98-->94: 	2	1000	
98-->94: 	(1)
98-->95: 	2	3	4	1000	
98-->95: 	(3)
98-->96: 	2	3	4	1000	
98-->96: 	(3)
98-->97: 	2	3	4	1000	
98-->97: 	(3)
99-->5: 	8	1000	
99-->5: 	(1)
99-->6: 	2	1000	
99-->6: 	(1)
99-->94: 	4	5	6	1000	
99-->94: 	(3)
100-->94: 	3	1000	
100-->94: 	(1)
100-->96: 	3	1000	
100-->96: 	(1)
100-->97: 	3	1000	
100-->97: 	(1)
100-->98: 	2	1000	
100-->98: 	(1)
101-->94: 	3	1000	
101-->94: 	(1)
101-->96: 	3	1000	
101-->96: 	(1)
101-->97: 	2	3	4	1000	
101-->97: 	(3)
101-->98: 	2	1000	
101-->98: 	(1)
102-->94: 	2	1000	
102-->94: 	(1)
102-->96: 	2	1000	
102-->96: 	(1)
102-->97: 	2	3	4	1000	
102-->97: 	(3)
102-->98: 	2	3	4	1000	
102-->98: 	(3)
103-->94: 	3	1000	
103-->94: 	(1)
103-->96: 	3	1000	
103-->96: 	(1)
103-->97: 	3	1000	
103-->97: 	(1)
103-->98: 	2	1000	
103-->98: 	(1)
104-->94: 	2	1000	
104-->94: 	(1)
104-->96: 	2	1000	
104-->96: 	(1)
104-->97: 	2	3	4	1000	
104-->97: 	(3)
104-->98: 	3	1000	
104-->98: 	(1)
105-->94: 	3	1000	
105-->94: 	(1)
105-->96: 	3	1000	
105-->96: 	(1)
105-->97: 	4	1000	
105-->97: 	(1)
105-->98: 	3	1000	
105-->98: 	(1)
106-->96: 	2	3	4	1000	
106-->96: 	(3)
106-->97: 	2	3	4	1000	
106-->97: 	(3)
107-->94: 	3	1000	
107-->94: 	(1)
107-->96: 	3	1000	
107-->96: 	(1)
107-->97: 	3	1000	
107-->97: 	(1)
107-->98: 	2	1000	
107-->98: 	(1)
108-->94: 	3	1000	
108-->94: 	(1)
108-->96: 	3	1000	
108-->96: 	(1)
108-->97: 	3	1000	
108-->97: 	(1)
108-->98: 	2	1000	
108-->98: 	(1)
108-->106: 	4	1000	
108-->106: 	(1)
109-->94: 	3	1000	
109-->94: 	(1)
109-->96: 	3	1000	
109-->96: 	(1)
109-->97: 	2	3	4	1000	
109-->97: 	(3)
109-->98: 	2	1000	
109-->98: 	(1)
110-->6: 	6	1000	
110-->6: 	(1)
110-->94: 	2	1000	
110-->94: 	(1)
110-->96: 	2	1000	
110-->96: 	(1)
110-->97: 	2	3	4	1000	
110-->97: 	(3)
110-->98: 	2	3	4	1000	
110-->98: 	(3)
111-->46: 	7	1000	
111-->46: 	(1)
111-->76: 	6	1000	
111-->76: 	(1)
111-->94: 	4	1000	
111-->94: 	(1)
111-->96: 	4	1000	
111-->96: 	(1)
111-->97: 	4	1000	
111-->97: 	(1)
111-->98: 	5	1000	
111-->98: 	(1)
112-->94: 	4	1000	
112-->94: 	(1)
112-->96: 	4	1000	
112-->96: 	(1)
112-->97: 	3	4	5	1000	
112-->97: 	(3)
112-->98: 	3	1000	
112-->98: 	(1)
113-->94: 	2	1000	
113-->94: 	(1)
113-->96: 	2	1000	
113-->96: 	(1)
113-->97: 	2	3	4	1000	
113-->97: 	(3)
113-->98: 	3	1000	
113-->98: 	(1)
114-->94: 	3	1000	
114-->94: 	(1)
114-->96: 	3	1000	
114-->96: 	(1)
114-->97: 	3	1000	
114-->97: 	(1)
114-->98: 	2	1000	
114-->98: 	(1)
115-->34: 	8	9	11	1000	
115-->34: 	(3)
115-->76: 	7	1000	
115-->76: 	(1)
115-->94: 	3	1000	
115-->94: 	(1)
115-->96: 	3	1000	
115-->96: 	(1)
115-->97: 	3	4	5	1000	
115-->97: 	(3)
115-->98: 	4	1000	
115-->98: 	(1)
116-->94: 	3	1000	
116-->94: 	(1)
116-->96: 	3	1000	
116-->96: 	(1)
116-->97: 	3	1000	
116-->97: 	(1)
116-->98: 	2	1000	
116-->98: 	(1)
117-->96: 	2	3	4	1000	
117-->96: 	(3)
117-->97: 	2	3	4	1000	
117-->97: 	(3)
118-->94: 	2	3	4	1000	
118-->94: 	(3)
118-->97: 	2	3	4	1000	
118-->97: 	(3)
119-->94: 	2	3	4	1000	
119-->94: 	(3)
119-->97: 	2	3	4	1000	
119-->97: 	(3)
120-->94: 	3	1000	
120-->94: 	(1)
120-->96: 	2	1000	
120-->96: 	(1)
120-->97: 	3	1000	
120-->97: 	(1)
120-->98: 	3	1000	
120-->98: 	(1)
121-->94: 	3	1000	
121-->94: 	(1)
121-->96: 	3	1000	
121-->96: 	(1)
121-->97: 	3	4	5	1000	
121-->97: 	(3)
121-->98: 	4	1000	
121-->98: 	(1)
122-->94: 	3	1000	
122-->94: 	(1)
122-->96: 	3	1000	
122-->96: 	(1)
122-->97: 	3	1000	
122-->97: 	(1)
122-->98: 	2	1000	
122-->98: 	(1)
123-->94: 	2	1000	
123-->94: 	(1)
123-->96: 	2	1000	
123-->96: 	(1)
123-->97: 	2	3	4	1000	
123-->97: 	(3)
123-->98: 	2	3	4	1000	
123-->98: 	(3)
124-->96: 	3	4	5	1000	
124-->96: 	(3)
124-->97: 	3	4	5	1000	
124-->97: 	(3)
124-->98: 	3	1000	
124-->98: 	(1)
125-->54: 	1	1000	
125-->54: 	(1)
126-->53: 	1	1000	
126-->53: 	(1)
130-->129: 	2	3	4	1000	
130-->129: 	(3)
131-->2: 	2	3	7	1000	
131-->2: 	(3)
131-->91: 	5	6	10	11	13	1000	
131-->91: 	(5)
132-->92: 	7	1000	
132-->92: 	(1)
132-->129: 	3	1000	
132-->129: 	(1)
132-->131: 	4	5	7	1000	
132-->131: 	(3)
134-->133: 	13	14	16	1000	
134-->133: 	(3)
135-->65: 	6	1000	
135-->65: 	(1)
135-->66: 	6	7	8	1000	
135-->66: 	(3)
135-->96: 	6	7	8	1000	
135-->96: 	(3)
136-->97: 	6	1000	
136-->97: 	(1)
136-->135: 	2	3	4	1000	
136-->135: 	(3)
137-->94: 	6	1000	
137-->94: 	(1)
137-->98: 	5	6	8	1000	
137-->98: 	(3)
137-->135: 	3	4	5	1000	
137-->135: 	(3)
137-->136: 	3	1000	
137-->136: 	(1)
138-->94: 	5	6	7	8	9	1000	
138-->94: 	(5)
138-->135: 	3	4	5	1000	
138-->135: 	(3)
138-->136: 	3	1000	
138-->136: 	(1)
139-->135: 	2	1000	
139-->135: 	(1)
139-->136: 	2	1000	
139-->136: 	(1)
139-->137: 	3	4	5	1000	
139-->137: 	(3)
139-->138: 	3	1000	
139-->138: 	(1)
140-->136: 	3	1000	
140-->136: 	(1)
140-->137: 	3	1000	
140-->137: 	(1)
140-->138: 	2	3	4	1000	
140-->138: 	(3)
141-->111: 	7	8	13	1000	
141-->111: 	(3)
141-->135: 	3	1000	
141-->135: 	(1)
141-->136: 	3	1000	
141-->136: 	(1)
141-->137: 	4	5	6	1000	
141-->137: 	(3)
141-->138: 	4	1000	
141-->138: 	(1)
142-->135: 	2	1000	
142-->135: 	(1)
142-->136: 	2	1000	
142-->136: 	(1)
142-->137: 	4	1000	
142-->137: 	(1)
142-->138: 	4	1000	
142-->138: 	(1)
143-->61: 	1	1000	
143-->61: 	(1)
143-->135: 	2	1000	
143-->135: 	(1)
143-->136: 	2	1000	
143-->136: 	(1)
143-->137: 	4	1000	
143-->137: 	(1)
143-->138: 	3	4	5	1000	
143-->138: 	(3)
144-->96: 	6	1000	
144-->96: 	(1)
144-->135: 	2	1000	
144-->135: 	(1)
144-->136: 	2	1000	
144-->136: 	(1)
144-->137: 	4	1000	
144-->137: 	(1)
144-->138: 	3	4	5	1000	
144-->138: 	(3)
144-->142: 	2	3	4	1000	
144-->142: 	(3)
145-->135: 	2	1000	
145-->135: 	(1)
145-->136: 	2	1000	
145-->136: 	(1)
145-->137: 	3	4	5	1000	
145-->137: 	(3)
145-->138: 	3	1000	
145-->138: 	(1)
146-->135: 	2	3	4	1000	
146-->135: 	(3)
146-->136: 	2	3	4	1000	
146-->136: 	(3)
147-->136: 	1	1000	
147-->136: 	(1)
148-->135: 	1	1000	
148-->135: 	(1)
149-->136: 	1	1000	
149-->136: 	(1)
150-->137: 	4	1000	
150-->137: 	(1)
150-->138: 	2	3	5	1000	
150-->138: 	(3)
151-->50: 	9	1000	
151-->50: 	(1)
151-->92: 	3	4	6	7	8	10	11	12	1000	
151-->92: 	(8)
151-->127: 	1	1000	
151-->127: 	(1)
152-->151: 	4	5	9	1000	
152-->151: 	(3)
153-->50: 	2	3	7	1000	
153-->50: 	(3)
153-->128: 	1	1000	
153-->128: 	(1)
153-->151: 	2	3	4	5	1000	
153-->151: 	(4)
154-->50: 	8	9	10	1000	
154-->50: 	(3)
155-->3: 	1	1000	
155-->3: 	(1)
156-->153: 	3	4	5	6	7	10	1000	
156-->153: 	(6)
156-->154: 	5	6	13	1000	
156-->154: 	(3)
157-->91: 	3	4	6	7	8	9	10	1000	
157-->91: 	(7)
157-->156: 	2	1000	
157-->156: 	(1)
159-->129: 	2	1000	
159-->129: 	(1)
159-->158: 	5	1000	
159-->158: 	(1)
160-->131: 	1	1000	
160-->131: 	(1)
161-->152: 	9	10	11	1000	
161-->152: 	(3)
162-->153: 	10	1000	
162-->153: 	(1)
162-->154: 	8	9	14	1000	
162-->154: 	(3)
163-->154: 	9	1000	
163-->154: 	(1)
164-->3: 	6	1000	
164-->3: 	(1)
164-->62: 	8	1000	
164-->62: 	(1)
164-->93: 	2	3	6	1000	
164-->93: 	(3)
164-->94: 	4	1000	
164-->94: 	(1)
164-->95: 	3	4	6	1000	
164-->95: 	(3)
164-->96: 	4	1000	
164-->96: 	(1)
164-->97: 	4	1000	
164-->97: 	(1)
164-->100: 	2	3	6	1000	
164-->100: 	(3)
164-->101: 	3	4	6	1000	
164-->101: 	(3)
164-->102: 	3	4	6	1000	
164-->102: 	(3)
164-->103: 	2	3	6	1000	
164-->103: 	(3)
164-->104: 	3	4	6	1000	
164-->104: 	(3)
164-->105: 	2	3	7	1000	
164-->105: 	(3)
164-->107: 	2	3	6	1000	
164-->107: 	(3)
164-->108: 	2	3	6	1000	
164-->108: 	(3)
164-->109: 	3	4	6	1000	
164-->109: 	(3)
164-->110: 	3	4	6	1000	
164-->110: 	(3)
164-->111: 	7	1000	
164-->111: 	(1)
164-->112: 	2	3	7	1000	
164-->112: 	(3)
164-->113: 	3	4	6	1000	
164-->113: 	(3)
164-->114: 	2	3	6	1000	
164-->114: 	(3)
164-->115: 	4	5	7	1000	
164-->115: 	(3)
164-->116: 	2	3	6	1000	
164-->116: 	(3)
164-->120: 	3	4	6	1000	
164-->120: 	(3)
164-->121: 	3	4	7	1000	
164-->121: 	(3)
164-->122: 	2	3	6	1000	
164-->122: 	(3)
164-->123: 	5	1000	
164-->123: 	(1)
164-->124: 	2	3	7	1000	
164-->124: 	(3)
164-->137: 	7	8	9	1000	
164-->137: 	(3)
165-->35: 	7	8	9	1000	
165-->35: 	(3)
165-->66: 	9	1000	
165-->66: 	(1)
165-->156: 	5	6	7	1000	
165-->156: 	(3)
165-->161: 	3	1000	
165-->161: 	(1)
165-->162: 	4	5	11	1000	
165-->162: 	(3)
165-->163: 	2	1000	
165-->163: 	(1)
166-->36: 	7	1000	
166-->36: 	(1)
166-->63: 	9	1000	
166-->63: 	(1)
166-->157: 	5	6	7	8	9	1000	
166-->157: 	(5)
166-->165: 	2	1000	
166-->165: 	(1)
167-->165: 	2	1000	
167-->165: 	(1)
167-->166: 	2	1000	
167-->166: 	(1)
168-->66: 	12	1000	
168-->66: 	(1)
168-->166: 	2	3	4	1000	
168-->166: 	(3)
168-->167: 	2	3	4	1000	
168-->167: 	(3)
169-->65: 	8	9	10	1000	
169-->65: 	(3)
169-->166: 	2	1000	
169-->166: 	(1)
169-->168: 	2	1000	
169-->168: 	(1)
170-->169: 	2	3	4	1000	
170-->169: 	(3)
171-->161: 	3	1000	
171-->161: 	(1)
171-->163: 	2	1000	
171-->163: 	(1)
171-->165: 	2	1000	
171-->165: 	(1)
171-->167: 	2	1000	
171-->167: 	(1)
171-->169: 	2	1000	
171-->169: 	(1)
171-->170: 	2	3	4	1000	
171-->170: 	(3)
172-->165: 	2	1000	
172-->165: 	(1)
172-->168: 	2	1000	
172-->168: 	(1)
172-->169: 	2	1000	
172-->169: 	(1)
172-->170: 	2	3	4	1000	
172-->170: 	(3)
172-->171: 	2	3	4	1000	
172-->171: 	(3)
173-->165: 	3	4	5	1000	
173-->165: 	(3)
173-->166: 	3	4	5	1000	
173-->166: 	(3)
173-->167: 	3	1000	
173-->167: 	(1)
173-->168: 	3	4	5	1000	
173-->168: 	(3)
174-->165: 	3	4	5	1000	
174-->165: 	(3)
174-->166: 	4	1000	
174-->166: 	(1)
174-->167: 	3	1000	
174-->167: 	(1)
174-->168: 	3	1000	
174-->168: 	(1)
175-->165: 	2	3	5	1000	
175-->165: 	(3)
175-->166: 	3	1000	
175-->166: 	(1)
175-->167: 	3	1000	
175-->167: 	(1)
175-->168: 	3	4	5	1000	
175-->168: 	(3)
176-->165: 	3	4	5	1000	
176-->165: 	(3)
176-->166: 	3	4	5	1000	
176-->166: 	(3)
176-->167: 	3	1000	
176-->167: 	(1)
176-->168: 	3	4	5	1000	
176-->168: 	(3)
176-->174: 	2	3	6	1000	
176-->174: 	(3)
176-->175: 	3	4	5	1000	
176-->175: 	(3)
177-->166: 	3	4	5	1000	
177-->166: 	(3)
177-->170: 	3	4	7	1000	
177-->170: 	(3)
178-->165: 	3	4	5	1000	
178-->165: 	(3)
178-->166: 	3	4	5	1000	
178-->166: 	(3)
178-->167: 	3	1000	
178-->167: 	(1)
178-->168: 	3	4	5	1000	
178-->168: 	(3)
179-->165: 	2	3	5	1000	
179-->165: 	(3)
179-->166: 	3	1000	
179-->166: 	(1)
179-->167: 	3	1000	
179-->167: 	(1)
179-->168: 	3	4	5	1000	
179-->168: 	(3)
180-->168: 	2	1000	
180-->168: 	(1)
180-->169: 	2	3	4	1000	
180-->169: 	(3)
181-->168: 	3	1000	
181-->168: 	(1)
181-->169: 	3	4	5	1000	
181-->169: 	(3)
181-->180: 	3	4	5	1000	
181-->180: 	(3)
182-->165: 	2	1000	
182-->165: 	(1)
182-->171: 	2	1000	
182-->171: 	(1)
183-->165: 	2	1000	
183-->165: 	(1)
183-->171: 	2	1000	
183-->171: 	(1)
184-->36: 	4	1000	
184-->36: 	(1)
184-->37: 	3	1000	
184-->37: 	(1)
184-->96: 	8	9	10	1000	
184-->96: 	(3)
185-->36: 	4	5	6	1000	
185-->36: 	(3)
185-->37: 	4	5	6	1000	
185-->37: 	(3)
185-->96: 	9	1000	
185-->96: 	(1)
186-->98: 	7	1000	
186-->98: 	(1)
186-->164: 	9	10	11	1000	
186-->164: 	(3)
186-->184: 	3	1000	
186-->184: 	(1)
186-->185: 	5	1000	
186-->185: 	(1)
187-->35: 	2	3	5	6	7	1000	
187-->35: 	(5)
187-->184: 	3	4	5	1000	
187-->184: 	(3)
187-->185: 	4	5	7	1000	
187-->185: 	(3)
187-->186: 	2	3	5	1000	
187-->186: 	(3)
188-->184: 	2	1000	
188-->184: 	(1)
188-->185: 	4	5	8	1000	
188-->185: 	(3)
188-->186: 	3	1000	
188-->186: 	(1)
188-->187: 	4	1000	
188-->187: 	(1)
189-->184: 	2	3	5	1000	
189-->184: 	(3)
189-->185: 	5	6	8	1000	
189-->185: 	(3)
190-->33: 	5	1000	
190-->33: 	(1)
190-->184: 	3	1000	
190-->184: 	(1)
190-->185: 	7	8	9	1000	
190-->185: 	(3)
190-->186: 	4	1000	
190-->186: 	(1)
190-->187: 	5	1000	
190-->187: 	(1)
191-->130: 	2	3	4	5	8	1000	
191-->130: 	(5)
192-->151: 	2	3	4	5	8	9	12	13	15	1000	
192-->151: 	(9)
192-->158: 	2	3	13	1000	
192-->158: 	(3)
192-->191: 	2	3	4	5	8	9	12	1000	
192-->191: 	(7)
193-->6: 	8	9	10	1000	
193-->6: 	(3)
193-->7: 	8	9	10	1000	
193-->7: 	(3)
194-->5: 	7	1000	
194-->5: 	(1)
194-->6: 	22	1000	
194-->6: 	(1)
194-->193: 	10	1000	
194-->193: 	(1)
195-->193: 	8	1000	
195-->193: 	(1)
195-->194: 	3	4	13	1000	
195-->194: 	(3)
196-->193: 	8	1000	
196-->193: 	(1)
196-->194: 	3	4	13	14	18	1000	
196-->194: 	(5)
197-->136: 	13	14	16	17	18	1000	
197-->136: 	(5)
197-->165: 	6	7	8	1000	
197-->165: 	(3)
198-->169: 	6	1000	
198-->169: 	(1)
198-->197: 	2	3	4	1000	
198-->197: 	(3)
199-->96: 	9	10	11	1000	
199-->96: 	(3)
199-->167: 	6	1000	
199-->167: 	(1)
199-->168: 	6	7	8	1000	
199-->168: 	(3)
199-->197: 	2	1000	
199-->197: 	(1)
199-->198: 	2	3	4	1000	
199-->198: 	(3)
200-->137: 	13	1000	
200-->137: 	(1)
200-->138: 	12	1000	
200-->138: 	(1)
200-->198: 	4	1000	
200-->198: 	(1)
200-->199: 	2	3	4	1000	
200-->199: 	(3)
201-->198: 	7	8	9	1000	
201-->198: 	(3)
202-->197: 	4	1000	
202-->197: 	(1)
202-->198: 	6	1000	
202-->198: 	(1)
202-->200: 	5	1000	
202-->200: 	(1)
203-->98: 	9	10	11	1000	
203-->98: 	(3)
203-->164: 	11	12	13	1000	
203-->164: 	(3)
203-->198: 	2	1000	
203-->198: 	(1)
203-->199: 	2	1000	
203-->199: 	(1)
203-->200: 	2	1000	
203-->200: 	(1)
203-->202: 	4	1000	
203-->202: 	(1)
204-->197: 	1	1000	
204-->197: 	(1)
205-->197: 	2	3	4	1000	
205-->197: 	(3)
205-->198: 	3	1000	
205-->198: 	(1)
205-->199: 	3	1000	
205-->199: 	(1)
206-->197: 	2	3	4	1000	
206-->197: 	(3)
206-->198: 	3	1000	
206-->198: 	(1)
206-->199: 	3	1000	
206-->199: 	(1)
207-->197: 	2	3	4	1000	
207-->197: 	(3)
207-->198: 	3	1000	
207-->198: 	(1)
207-->199: 	3	1000	
207-->199: 	(1)
208-->197: 	2	1000	
208-->197: 	(1)
208-->199: 	2	1000	
208-->199: 	(1)
209-->197: 	2	3	4	1000	
209-->197: 	(3)
209-->198: 	3	1000	
209-->198: 	(1)
209-->199: 	3	1000	
209-->199: 	(1)
210-->197: 	2	3	4	1000	
210-->197: 	(3)
210-->198: 	3	1000	
210-->198: 	(1)
210-->199: 	3	1000	
210-->199: 	(1)
211-->197: 	2	3	4	1000	
211-->197: 	(3)
211-->198: 	3	1000	
211-->198: 	(1)
211-->199: 	3	1000	
211-->199: 	(1)
212-->203: 	1	1000	
212-->203: 	(1)
213-->197: 	2	1000	
213-->197: 	(1)
213-->198: 	3	1000	
213-->198: 	(1)
213-->199: 	2	1000	
213-->199: 	(1)
214-->197: 	2	3	4	1000	
214-->197: 	(3)
214-->198: 	3	1000	
214-->198: 	(1)
214-->199: 	3	1000	
214-->199: 	(1)
216-->215: 	3	1000	
216-->215: 	(1)
218-->156: 	4	5	6	1000	
218-->156: 	(3)
218-->167: 	8	1000	
218-->167: 	(1)
218-->170: 	4	5	6	7	8	9	10	1000	
218-->170: 	(7)
218-->217: 	3	4	6	1000	
218-->217: 	(3)
219-->35: 	4	5	6	1000	
219-->35: 	(3)
219-->203: 	9	1000	
219-->203: 	(1)
220-->36: 	4	5	6	1000	
220-->36: 	(3)
220-->157: 	4	5	6	1000	
220-->157: 	(3)
220-->165: 	6	7	8	1000	
220-->165: 	(3)
220-->168: 	8	1000	
220-->168: 	(1)
220-->217: 	2	1000	
220-->217: 	(1)
220-->219: 	2	1000	
220-->219: 	(1)
221-->198: 	5	6	7	8	9	1000	
221-->198: 	(5)
221-->218: 	2	1000	
221-->218: 	(1)
221-->219: 	2	3	4	1000	
221-->219: 	(3)
221-->220: 	2	3	4	1000	
221-->220: 	(3)
222-->30: 	2	1000	
222-->30: 	(1)
222-->218: 	2	1000	
222-->218: 	(1)
222-->219: 	2	3	4	1000	
222-->219: 	(3)
222-->221: 	2	3	4	1000	
222-->221: 	(3)
223-->29: 	1	1000	
223-->29: 	(1)
223-->37: 	4	1000	
223-->37: 	(1)
223-->173: 	9	10	11	1000	
223-->173: 	(3)
223-->218: 	2	1000	
223-->218: 	(1)
223-->219: 	2	3	4	1000	
223-->219: 	(3)
223-->220: 	2	3	4	1000	
223-->220: 	(3)
223-->222: 	2	3	4	1000	
223-->222: 	(3)
224-->30: 	2	3	4	1000	
224-->30: 	(3)
224-->218: 	2	1000	
224-->218: 	(1)
224-->220: 	2	1000	
224-->220: 	(1)
224-->222: 	3	1000	
224-->222: 	(1)
224-->223: 	2	1000	
224-->223: 	(1)
225-->28: 	1	1000	
225-->28: 	(1)
225-->218: 	2	1000	
225-->218: 	(1)
225-->219: 	2	3	4	1000	
225-->219: 	(3)
225-->220: 	2	3	4	1000	
225-->220: 	(3)
226-->108: 	16	1000	
226-->108: 	(1)
226-->220: 	3	1000	
226-->220: 	(1)
226-->224: 	2	3	5	1000	
226-->224: 	(3)
227-->218: 	3	1000	
227-->218: 	(1)
227-->219: 	3	4	5	1000	
227-->219: 	(3)
227-->220: 	3	4	5	1000	
227-->220: 	(3)
228-->218: 	3	1000	
228-->218: 	(1)
228-->219: 	3	4	5	1000	
228-->219: 	(3)
228-->220: 	3	4	5	1000	
228-->220: 	(3)
229-->218: 	3	1000	
229-->218: 	(1)
229-->219: 	3	4	5	1000	
229-->219: 	(3)
229-->220: 	3	4	5	1000	
229-->220: 	(3)
230-->220: 	1	1000	
230-->220: 	(1)
231-->218: 	3	1000	
231-->218: 	(1)
231-->219: 	3	4	5	1000	
231-->219: 	(3)
231-->220: 	3	4	5	1000	
231-->220: 	(3)
232-->218: 	3	1000	
232-->218: 	(1)
232-->219: 	3	4	5	1000	
232-->219: 	(3)
232-->220: 	3	4	5	1000	
232-->220: 	(3)
233-->219: 	2	3	4	1000	
233-->219: 	(3)
233-->222: 	2	1000	
233-->222: 	(1)
234-->218: 	3	1000	
234-->218: 	(1)
234-->219: 	3	4	5	1000	
234-->219: 	(3)
234-->220: 	3	4	5	1000	
234-->220: 	(3)
235-->218: 	3	1000	
235-->218: 	(1)
235-->219: 	3	4	5	1000	
235-->219: 	(3)
235-->220: 	3	4	5	1000	
235-->220: 	(3)
236-->218: 	1	1000	
236-->218: 	(1)
237-->36: 	1	1000	
237-->36: 	(1)
238-->218: 	2	3	5	1000	
238-->218: 	(3)
239-->219: 	2	3	5	1000	
239-->219: 	(3)
239-->238: 	3	1000	
239-->238: 	(1)
240-->96: 	4	1000	
240-->96: 	(1)
240-->97: 	2	3	4	1000	
240-->97: 	(3)
241-->65: 	7	8	9	1000	
241-->65: 	(3)
241-->201: 	9	10	12	1000	
241-->201: 	(3)
241-->202: 	8	1000	
241-->202: 	(1)
242-->64: 	10	1000	
242-->64: 	(1)
242-->66: 	7	8	9	10	11	1000	
242-->66: 	(5)
242-->200: 	9	1000	
242-->200: 	(1)
242-->241: 	2	1000	
242-->241: 	(1)
243-->241: 	2	1000	
243-->241: 	(1)
243-->242: 	2	3	4	1000	
243-->242: 	(3)
244-->241: 	2	1000	
244-->241: 	(1)
244-->242: 	2	1000	
244-->242: 	(1)
245-->241: 	2	1000	
245-->241: 	(1)
245-->242: 	2	3	4	1000	
245-->242: 	(3)
246-->242: 	1	1000	
246-->242: 	(1)
247-->241: 	1	1000	
247-->241: 	(1)
248-->241: 	2	1000	
248-->241: 	(1)
248-->242: 	2	3	4	1000	
248-->242: 	(3)
249-->241: 	2	1000	
249-->241: 	(1)
249-->242: 	2	3	4	1000	
249-->242: 	(3)
250-->241: 	2	1000	
250-->241: 	(1)
250-->242: 	2	3	4	1000	
250-->242: 	(3)
251-->5: 	9	1000	
251-->5: 	(1)
251-->7: 	3	4	5	6	7	1000	
251-->7: 	(5)
251-->65: 	9	1000	
251-->65: 	(1)
251-->220: 	8	1000	
251-->220: 	(1)
252-->4: 	3	4	5	1000	
252-->4: 	(3)
252-->251: 	2	1000	
252-->251: 	(1)
253-->3: 	3	4	5	6	7	1000	
253-->3: 	(5)
253-->6: 	15	1000	
253-->6: 	(1)
253-->219: 	6	7	8	9	10	1000	
253-->219: 	(5)
253-->251: 	2	3	4	1000	
253-->251: 	(3)
253-->252: 	2	3	4	1000	
253-->252: 	(3)
254-->6: 	3	4	5	6	1000	
254-->6: 	(4)
254-->97: 	1000	
254-->97: 	(0)
254-->251: 	2	1000	
254-->251: 	(1)
254-->252: 	2	1000	
254-->252: 	(1)
255-->251: 	4	5	6	1000	
255-->251: 	(3)
255-->253: 	4	5	6	1000	
255-->253: 	(3)
255-->254: 	4	1000	
255-->254: 	(1)
256-->251: 	2	1000	
256-->251: 	(1)
256-->252: 	3	1000	
256-->252: 	(1)
257-->252: 	1	1000	
257-->252: 	(1)
258-->251: 	4	1000	
258-->251: 	(1)
258-->255: 	2	3	6	1000	
258-->255: 	(3)
259-->254: 	1	1000	
259-->254: 	(1)
261-->66: 	4	5	6	7	8	9	1000	
261-->66: 	(6)
261-->260: 	3	1000	
261-->260: 	(1)
262-->135: 	7	8	9	1000	
262-->135: 	(3)
262-->260: 	2	3	4	5	1000	
262-->260: 	(4)
262-->261: 	2	1000	
262-->261: 	(1)
263-->261: 	3	1000	
263-->261: 	(1)
263-->262: 	2	3	4	1000	
263-->262: 	(3)
264-->260: 	1	1000	
264-->260: 	(1)
265-->260: 	1	1000	
265-->260: 	(1)
267-->48: 	3	4	5	1000	
267-->48: 	(3)
267-->64: 	6	7	8	1000	
267-->64: 	(3)
267-->172: 	8	1000	
267-->172: 	(1)
267-->201: 	2	1000	
267-->201: 	(1)
267-->202: 	2	3	4	1000	
267-->202: 	(3)
268-->49: 	2	3	9	1000	
268-->49: 	(3)
268-->63: 	6	7	8	1000	
268-->63: 	(3)
268-->198: 	4	5	6	7	8	10	1000	
268-->198: 	(6)
268-->267: 	3	1000	
268-->267: 	(1)
269-->67: 	5	6	7	1000	
269-->67: 	(3)
269-->267: 	3	1000	
269-->267: 	(1)
269-->268: 	3	4	6	1000	
269-->268: 	(3)
270-->267: 	2	1000	
270-->267: 	(1)
270-->268: 	3	4	5	1000	
270-->268: 	(3)
271-->91: 	5	1000	
271-->91: 	(1)
272-->92: 	2	3	5	1000	
272-->92: 	(3)
272-->271: 	2	3	9	1000	
272-->271: 	(3)
273-->13: 	7	1000	
273-->13: 	(1)
274-->193: 	3	4	5	1000	
274-->193: 	(3)
274-->197: 	8	9	10	1000	
274-->197: 	(3)
274-->254: 	5	6	7	8	9	1000	
274-->254: 	(5)
274-->273: 	5	6	7	1000	
274-->273: 	(3)
275-->64: 	11	12	13	1000	
275-->64: 	(3)
275-->193: 	5	1000	
275-->193: 	(1)
275-->198: 	8	1000	
275-->198: 	(1)
275-->215: 	3	1000	
275-->215: 	(1)
275-->252: 	5	1000	
275-->252: 	(1)
275-->273: 	5	6	7	1000	
275-->273: 	(3)
276-->134: 	2	3	25	1000	
276-->134: 	(3)
276-->193: 	3	4	5	1000	
276-->193: 	(3)
276-->194: 	9	10	13	1000	
276-->194: 	(3)
276-->199: 	7	1000	
276-->199: 	(1)
276-->216: 	2	3	8	1000	
276-->216: 	(3)
276-->253: 	5	6	7	1000	
276-->253: 	(3)
276-->255: 	3	4	7	1000	
276-->255: 	(3)
276-->273: 	5	6	7	1000	
276-->273: 	(3)
276-->274: 	2	3	4	1000	
276-->274: 	(3)
276-->275: 	2	3	4	1000	
276-->275: 	(3)
277-->64: 	12	13	14	15	16	1000	
277-->64: 	(5)
277-->198: 	9	10	11	1000	
277-->198: 	(3)
277-->215: 	3	4	8	1000	
277-->215: 	(3)
277-->252: 	6	1000	
277-->252: 	(1)
277-->273: 	6	7	8	1000	
277-->273: 	(3)
277-->276: 	3	1000	
277-->276: 	(1)
278-->274: 	3	4	5	1000	
278-->274: 	(3)
278-->275: 	3	4	5	1000	
278-->275: 	(3)
278-->276: 	3	4	5	1000	
278-->276: 	(3)
278-->277: 	4	5	6	1000	
278-->277: 	(3)
279-->274: 	3	4	5	1000	
279-->274: 	(3)
279-->275: 	3	1000	
279-->275: 	(1)
279-->276: 	3	4	5	1000	
279-->276: 	(3)
279-->277: 	3	4	6	1000	
279-->277: 	(3)
280-->274: 	3	4	5	1000	
280-->274: 	(3)
280-->275: 	3	4	5	1000	
280-->275: 	(3)
280-->276: 	3	4	5	1000	
280-->276: 	(3)
280-->277: 	4	5	6	1000	
280-->277: 	(3)
281-->274: 	3	4	5	1000	
281-->274: 	(3)
281-->275: 	3	4	5	1000	
281-->275: 	(3)
281-->276: 	3	4	5	1000	
281-->276: 	(3)
281-->277: 	4	5	6	1000	
281-->277: 	(3)
282-->274: 	3	4	5	1000	
282-->274: 	(3)
282-->275: 	3	4	5	1000	
282-->275: 	(3)
282-->276: 	3	4	5	1000	
282-->276: 	(3)
282-->277: 	5	1000	
282-->277: 	(1)
283-->274: 	3	4	5	1000	
283-->274: 	(3)
283-->275: 	3	4	5	1000	
283-->275: 	(3)
283-->276: 	3	4	5	1000	
283-->276: 	(3)
283-->277: 	4	5	6	1000	
283-->277: 	(3)
284-->274: 	4	1000	
284-->274: 	(1)
284-->275: 	3	1000	
284-->275: 	(1)
284-->276: 	3	4	5	1000	
284-->276: 	(3)
284-->277: 	3	4	6	1000	
284-->277: 	(3)
285-->274: 	3	4	5	1000	
285-->274: 	(3)
285-->275: 	3	1000	
285-->275: 	(1)
285-->276: 	3	4	5	1000	
285-->276: 	(3)
285-->277: 	3	4	6	1000	
285-->277: 	(3)
286-->274: 	3	4	5	1000	
286-->274: 	(3)
286-->275: 	3	4	5	1000	
286-->275: 	(3)
286-->276: 	3	4	5	1000	
286-->276: 	(3)
286-->277: 	4	5	6	1000	
286-->277: 	(3)
287-->274: 	2	3	4	1000	
287-->274: 	(3)
287-->276: 	2	3	4	1000	
287-->276: 	(3)
288-->275: 	3	1000	
288-->275: 	(1)
288-->276: 	3	4	5	1000	
288-->276: 	(3)
288-->277: 	5	1000	
288-->277: 	(1)
289-->275: 	3	1000	
289-->275: 	(1)
289-->276: 	3	4	5	1000	
289-->276: 	(3)
289-->277: 	5	1000	
289-->277: 	(1)
290-->274: 	3	4	5	1000	
290-->274: 	(3)
290-->275: 	3	4	5	1000	
290-->275: 	(3)
290-->276: 	3	4	5	1000	
290-->276: 	(3)
290-->277: 	4	5	6	1000	
290-->277: 	(3)
291-->274: 	3	4	5	1000	
291-->274: 	(3)
291-->275: 	3	4	5	1000	
291-->275: 	(3)
291-->276: 	3	4	5	1000	
291-->276: 	(3)
291-->277: 	5	1000	
291-->277: 	(1)
293-->274: 	2	3	4	1000	
293-->274: 	(3)
293-->276: 	2	3	4	1000	
293-->276: 	(3)
294-->292: 	4	5	7	1000	
294-->292: 	(3)
294-->293: 	2	3	5	6	13	1000	
294-->293: 	(5)
295-->53: 	6	1000	
295-->53: 	(1)
295-->54: 	6	7	8	1000	
295-->54: 	(3)
295-->251: 	7	8	9	1000	
295-->251: 	(3)
295-->261: 	2	1000	
295-->261: 	(1)
295-->262: 	3	1000	
295-->262: 	(1)
295-->292: 	7	8	10	1000	
295-->292: 	(3)
296-->54: 	6	7	8	1000	
296-->54: 	(3)
296-->252: 	7	8	9	1000	
296-->252: 	(3)
296-->295: 	2	1000	
296-->295: 	(1)
297-->295: 	3	1000	
297-->295: 	(1)
297-->296: 	3	1000	
297-->296: 	(1)
298-->295: 	2	1000	
298-->295: 	(1)
298-->296: 	2	3	4	1000	
298-->296: 	(3)
298-->297: 	2	3	5	1000	
298-->297: 	(3)
299-->244: 	13	14	15	16	17	1000	
299-->244: 	(5)
299-->295: 	2	3	19	1000	
299-->295: 	(3)
300-->295: 	1	1000	
300-->295: 	(1)
301-->133: 	5	1000	
301-->133: 	(1)
301-->274: 	7	8	11	1000	
301-->274: 	(3)
302-->133: 	2	3	4	1000	
302-->133: 	(3)
302-->266: 	2	3	5	1000	
302-->266: 	(3)
302-->295: 	8	1000	
302-->295: 	(1)
302-->296: 	6	7	8	1000	
302-->296: 	(3)
302-->301: 	3	4	7	1000	
302-->301: 	(3)
303-->266: 	7	1000	
303-->266: 	(1)
303-->274: 	8	9	10	1000	
303-->274: 	(3)
303-->302: 	2	3	4	5	6	7	1000	
303-->302: 	(6)
304-->218: 	3	1000	
304-->218: 	(1)
304-->219: 	3	1000	
304-->219: 	(1)
304-->220: 	3	1000	
304-->220: 	(1)
305-->218: 	3	4	5	6	7	1000	
305-->218: 	(5)
305-->219: 	3	4	5	1000	
305-->219: 	(3)
305-->220: 	3	4	5	1000	
305-->220: 	(3)
306-->219: 	4	5	6	7	1000	
306-->219: 	(4)
307-->304: 	3	4	6	1000	
307-->304: 	(3)
307-->305: 	3	4	6	1000	
307-->305: 	(3)
307-->306: 	2	3	4	1000	
307-->306: 	(3)
308-->304: 	2	1000	
308-->304: 	(1)
308-->305: 	2	1000	
308-->305: 	(1)
308-->306: 	2	1000	
308-->306: 	(1)
309-->218: 	3	4	5	6	7	1000	
309-->218: 	(5)
309-->219: 	3	4	5	1000	
309-->219: 	(3)
309-->220: 	3	4	5	1000	
309-->220: 	(3)
309-->307: 	3	4	6	1000	
309-->307: 	(3)
309-->308: 	2	1000	
309-->308: 	(1)
310-->218: 	3	4	5	6	7	1000	
310-->218: 	(5)
310-->219: 	3	4	5	1000	
310-->219: 	(3)
310-->220: 	3	4	5	1000	
310-->220: 	(3)
310-->307: 	3	4	6	1000	
310-->307: 	(3)
310-->308: 	2	1000	
310-->308: 	(1)
311-->218: 	3	4	5	6	7	1000	
311-->218: 	(5)
311-->219: 	3	4	5	1000	
311-->219: 	(3)
311-->220: 	3	4	5	1000	
311-->220: 	(3)
311-->307: 	4	5	7	1000	
311-->307: 	(3)
311-->308: 	3	1000	
311-->308: 	(1)
312-->304: 	2	3	6	1000	
312-->304: 	(3)
312-->305: 	2	3	6	1000	
312-->305: 	(3)
312-->306: 	2	1000	
312-->306: 	(1)
312-->309: 	2	3	6	1000	
312-->309: 	(3)
312-->310: 	2	3	6	1000	
312-->310: 	(3)
313-->304: 	3	4	6	1000	
313-->304: 	(3)
313-->305: 	3	4	6	1000	
313-->305: 	(3)
313-->306: 	2	3	4	5	7	1000	
313-->306: 	(5)
313-->309: 	3	4	6	1000	
313-->309: 	(3)
313-->310: 	3	4	6	1000	
313-->310: 	(3)
314-->218: 	3	4	5	6	7	1000	
314-->218: 	(5)
314-->219: 	3	4	5	1000	
314-->219: 	(3)
314-->220: 	3	4	5	1000	
314-->220: 	(3)
314-->307: 	3	4	6	1000	
314-->307: 	(3)
314-->308: 	2	3	6	1000	
314-->308: 	(3)
314-->312: 	2	3	6	1000	
314-->312: 	(3)
314-->313: 	3	4	6	1000	
314-->313: 	(3)
