
Considered topology name istopos_rand/BA75_4A.topo
Option :create route metric sequence for each link separately: is set=1
Reading topology from file 
Reading topology from file is COMPLETED 
7-->1: 	23	24	30	31	36	1000	
7-->1: 	(5)
12-->3: 	33	34	57	1000	
12-->3: 	(3)
14-->1: 	58	59	73	1000	
14-->1: 	(3)
15-->4: 	11	12	83	1000	
15-->4: 	(3)
15-->11: 	87	88	96	1000	
15-->11: 	(3)
15-->14: 	47	48	65	1000	
15-->14: 	(3)
16-->0: 	82	1000	
16-->0: 	(1)
16-->15: 	13	14	69	1000	
16-->15: 	(3)
17-->12: 	67	68	81	1000	
17-->12: 	(3)
18-->1: 	83	84	88	1000	
18-->1: 	(3)
18-->14: 	68	69	141	1000	
18-->14: 	(3)
19-->10: 	42	43	46	1000	
19-->10: 	(3)
19-->15: 	60	1000	
19-->15: 	(1)
20-->16: 	85	1000	
20-->16: 	(1)
22-->5: 	80	81	98	1000	
22-->5: 	(3)
23-->1: 	52	53	77	1000	
23-->1: 	(3)
25-->5: 	75	76	90	1000	
25-->5: 	(3)
27-->15: 	40	41	42	43	48	1000	
27-->15: 	(5)
28-->17: 	34	35	38	39	48	49	113	1000	
28-->17: 	(7)
30-->0: 	6	7	99	1000	
30-->0: 	(3)
30-->1: 	23	24	30	31	36	37	48	49	74	1000	
30-->1: 	(9)
30-->2: 	66	67	133	1000	
30-->2: 	(3)
30-->15: 	4	5	17	18	22	23	1000	
30-->15: 	(6)
30-->16: 	22	30	31	34	35	42	1000	
30-->16: 	(6)
30-->17: 	30	31	36	37	38	39	40	41	1000	
30-->17: 	(8)
30-->24: 	25	26	68	1000	
30-->24: 	(3)
30-->28: 	68	1000	
30-->28: 	(1)
31-->3: 	90	91	133	1000	
31-->3: 	(3)
31-->13: 	54	55	115	1000	
31-->13: 	(3)
31-->20: 	95	96	136	1000	
31-->20: 	(3)
31-->30: 	108	109	111	112	113	118	119	120	126	127	135	136	143	144	146	147	150	1000	
31-->30: 	(17)
32-->15: 	20	21	33	1000	
32-->15: 	(3)
32-->23: 	76	77	99	1000	
32-->23: 	(3)
32-->30: 	40	41	1000	
32-->30: 	(2)
34-->16: 	112	113	118	119	120	126	127	135	136	143	144	146	147	150	1000	
34-->16: 	(14)
34-->24: 	45	46	48	1000	
34-->24: 	(3)
34-->30: 	23	24	67	1000	
34-->30: 	(3)
35-->17: 	54	55	58	1000	
35-->17: 	(3)
37-->4: 	73	1000	
37-->4: 	(1)
37-->28: 	22	23	52	1000	
37-->28: 	(3)
38-->13: 	34	35	77	1000	
38-->13: 	(3)
39-->17: 	64	65	80	81	89	1000	
39-->17: 	(5)
41-->1: 	44	45	52	1000	
41-->1: 	(3)
41-->8: 	4	5	17	1000	
41-->8: 	(3)
41-->15: 	26	27	39	40	47	1000	
41-->15: 	(5)
41-->25: 	60	61	120	1000	
41-->25: 	(3)
41-->29: 	182	1000	
41-->29: 	(1)
42-->1: 	96	1000	
42-->1: 	(1)
42-->41: 	90	91	120	1000	
42-->41: 	(3)
43-->15: 	96	97	98	99	100	102	103	109	110	119	120	121	123	124	140	1000	
43-->15: 	(15)
43-->30: 	130	131	132	169	170	175	176	181	182	1000	
43-->30: 	(9)
44-->13: 	59	60	73	74	127	1000	
44-->13: 	(5)
44-->15: 	32	1000	
44-->15: 	(1)
44-->30: 	51	52	57	1000	
44-->30: 	(3)
45-->28: 	48	49	53	1000	
45-->28: 	(3)
46-->27: 	5	6	16	1000	
46-->27: 	(3)
48-->2: 	82	83	109	1000	
48-->2: 	(3)
48-->25: 	101	102	133	1000	
48-->25: 	(3)
48-->30: 	141	1000	
48-->30: 	(1)
49-->17: 	59	60	76	1000	
49-->17: 	(3)
49-->48: 	74	75	110	1000	
49-->48: 	(3)
50-->6: 	30	31	123	1000	
50-->6: 	(3)
50-->43: 	100	101	102	1000	
50-->43: 	(3)
51-->7: 	3	4	10	1000	
51-->7: 	(3)
51-->15: 	9	10	11	18	19	47	48	93	1000	
51-->15: 	(8)
51-->22: 	56	57	61	1000	
51-->22: 	(3)
51-->41: 	26	27	64	65	70	1000	
51-->41: 	(5)
52-->3: 	96	97	111	1000	
52-->3: 	(3)
52-->30: 	27	28	41	42	63	1000	
52-->30: 	(5)
53-->43: 	94	95	96	97	161	1000	
53-->43: 	(5)
54-->44: 	11	12	30	1000	
54-->44: 	(3)
55-->18: 	25	26	52	1000	
55-->18: 	(3)
55-->31: 	87	88	132	1000	
55-->31: 	(3)
56-->28: 	18	19	42	43	64	1000	
56-->28: 	(5)
56-->52: 	11	12	35	1000	
56-->52: 	(3)
57-->6: 	55	56	99	1000	
57-->6: 	(3)
57-->31: 	39	40	59	60	73	1000	
57-->31: 	(5)
57-->32: 	49	50	63	1000	
57-->32: 	(3)
57-->36: 	7	8	27	1000	
57-->36: 	(3)
58-->30: 	11	12	31	32	119	1000	
58-->30: 	(5)
58-->43: 	44	45	64	1000	
58-->43: 	(3)
59-->16: 	82	83	84	1000	
59-->16: 	(3)
59-->31: 	94	95	133	1000	
59-->31: 	(3)
60-->8: 	105	106	108	109	110	115	116	117	123	124	132	133	140	141	143	144	147	1000	
60-->8: 	(17)
60-->21: 	54	55	75	76	86	1000	
60-->21: 	(5)
60-->29: 	4	5	101	1000	
60-->29: 	(3)
60-->30: 	20	21	54	55	62	1000	
60-->30: 	(5)
60-->32: 	34	40	41	46	47	48	49	58	59	60	61	62	63	70	71	73	74	77	78	80	81	84	85	1000	
60-->32: 	(23)
60-->54: 	38	39	59	1000	
60-->54: 	(3)
61-->10: 	67	1000	
61-->10: 	(1)
61-->11: 	45	46	138	1000	
61-->11: 	(3)
61-->19: 	10	11	14	15	98	1000	
61-->19: 	(5)
61-->30: 	47	48	55	1000	
61-->30: 	(3)
61-->33: 	33	34	77	78	167	1000	
61-->33: 	(5)
61-->40: 	30	31	38	39	65	66	70	71	81	82	83	84	85	131	132	1000	
61-->40: 	(15)
61-->47: 	63	64	66	1000	
61-->47: 	(3)
61-->48: 	4	5	31	32	36	37	40	41	55	56	113	1000	
61-->48: 	(11)
61-->53: 	59	60	196	1000	
61-->53: 	(3)
62-->6: 	39	40	67	1000	
62-->6: 	(3)
62-->9: 	59	60	115	1000	
62-->9: 	(3)
62-->15: 	74	75	76	77	85	86	91	92	93	94	99	100	103	104	105	106	114	115	121	122	1000	
62-->15: 	(20)
62-->26: 	66	67	120	1000	
62-->26: 	(3)
62-->30: 	21	22	1000	
62-->30: 	(2)
62-->31: 	27	28	38	39	48	49	55	1000	
62-->31: 	(7)
62-->37: 	33	34	38	39	55	56	99	1000	
62-->37: 	(7)
62-->46: 	18	19	29	30	39	1000	
62-->46: 	(5)
62-->48: 	60	1000	
62-->48: 	(1)
63-->15: 	29	31	32	33	39	40	45	46	50	51	70	1000	
63-->15: 	(11)
63-->26: 	82	83	117	1000	
63-->26: 	(3)
63-->33: 	45	46	89	1000	
63-->33: 	(3)
63-->34: 	52	53	73	1000	
63-->34: 	(3)
64-->31: 	87	88	128	1000	
64-->31: 	(3)
64-->63: 	63	64	92	93	98	99	106	107	158	159	210	1000	
64-->63: 	(11)
65-->30: 	11	12	22	23	33	1000	
65-->30: 	(5)
65-->36: 	21	22	34	1000	
65-->36: 	(3)
65-->39: 	12	13	61	1000	
65-->39: 	(3)
65-->44: 	42	43	47	1000	
65-->44: 	(3)
66-->18: 	83	84	110	111	160	1000	
66-->18: 	(5)
66-->21: 	16	17	37	38	48	49	156	1000	
66-->21: 	(7)
66-->31: 	48	49	66	67	68	69	76	77	82	83	84	87	88	89	90	91	92	111	112	123	124	130	1000	
66-->31: 	(22)
66-->40: 	5	6	13	14	40	41	45	46	56	57	58	59	60	106	107	108	167	1000	
66-->40: 	(17)
66-->45: 	40	41	104	1000	
66-->45: 	(3)
67-->41: 	2	3	75	1000	
67-->41: 	(3)
67-->57: 	45	46	61	62	65	66	74	75	76	77	78	79	85	86	87	88	91	92	93	94	99	100	103	104	108	109	110	112	113	115	116	117	118	119	122	123	139	140	153	154	156	157	162	163	168	169	1000	
67-->57: 	(46)
68-->43: 	89	90	135	1000	
68-->43: 	(3)
68-->47: 	33	34	40	1000	
68-->47: 	(3)
68-->48: 	29	30	80	1000	
68-->48: 	(3)
69-->44: 	51	52	65	66	107	1000	
69-->44: 	(5)
69-->65: 	65	66	76	1000	
69-->65: 	(3)
70-->30: 	75	76	77	84	85	93	1000	
70-->30: 	(6)
70-->62: 	62	63	92	1000	
70-->62: 	(3)
71-->31: 	14	15	77	1000	
71-->31: 	(3)
71-->68: 	57	58	64	65	67	1000	
71-->68: 	(5)
72-->31: 	28	29	35	36	83	1000	
72-->31: 	(5)
73-->3: 	101	102	128	1000	
73-->3: 	(3)
73-->9: 	90	1000	
73-->9: 	(1)
73-->12: 	95	96	134	1000	
73-->12: 	(3)
73-->22: 	17	18	35	36	87	1000	
73-->22: 	(5)
73-->27: 	9	10	11	12	14	15	16	23	24	37	38	56	57	92	93	102	1000	
73-->27: 	(16)
73-->30: 	1000	
73-->30: 	(0)
73-->35: 	48	49	65	66	67	68	175	1000	
73-->35: 	(7)
73-->38: 	29	30	36	1000	
73-->38: 	(3)
73-->41: 	52	53	75	1000	
73-->41: 	(3)
73-->43: 	71	72	108	1000	
73-->43: 	(3)
73-->72: 	24	25	31	1000	
73-->72: 	(3)
74-->28: 	79	80	83	84	93	94	103	104	109	110	111	1000	
74-->28: 	(11)
74-->66: 	23	24	53	54	59	60	66	67	73	74	80	81	85	86	87	88	92	93	94	95	97	98	113	114	140	141	146	147	148	158	159	167	1000	
74-->66: 	(32)
